{
  "images" : [
    {
      "idiom" : "universal",
      "scale" : "1x",
      "filename" : "textField-border-bottom-yellow.png"
    },
    {
      "idiom" : "universal",
      "scale" : "2x",
      "filename" : "textField-border-bottom-yellow-1.png"
    },
    {
      "idiom" : "universal",
      "scale" : "3x",
      "filename" : "textField-border-bottom-yellow-2.png"
    }
  ],
  "info" : {
    "version" : 1,
    "author" : "xcode"
  }
}